module dominiclavery/goplin

go 1.15

require (
	github.com/MichaelMure/go-term-markdown v0.1.3
	github.com/derailed/tview v0.4.6
	github.com/gdamore/tcell v1.4.0
	github.com/spf13/cobra v1.1.1
	golang.org/x/sys v0.0.0-20201014080544-cc95f250f6bc // indirect
	golang.org/x/text v0.3.3 // indirect
)
